<svg xmlns="http://www.w3.org/2000/svg">
	<g id="mode_connect">
		<svg viewBox="0 0 24 24" xmlns:xlink="http://www.w3.org/1999/xlink" xmlns="http://www.w3.org/2000/svg">
			<defs>
				<line stroke-width="5" fill="none" stroke="#000000" id="svg_2" y2="121" x2="136" y1="7" x1="136">
					<stop stop-opacity="1" stop-color="#4687a0" />
					<stop stop-opacity="1" stop-color="#ffffff" />
				</line>
				<linearGradient y2="0.18359" x2="0.29688" y1="0.92188" x1="0.62109" id="svg_3">
					<stop stop-opacity="1" stop-color="#417dad" offset="0" />
					<stop stop-opacity="1" stop-color="#ffffff" offset="1" />
				</linearGradient>
			</defs>
			<g>
				<title>
					Layer 1
				</title>
				<line x1="5.64676" y1="5.60056" x2="18.50037" y2="18.62557" id="svg_5" stroke="#000000" fill="none" />
				<rect opacity="0.75" stroke-width="0.5" x="0.5" y="0.5" width="9.625" height="5.125" id="svg_1" fill="url(#svg_3)" stroke="#000000" />
				<rect opacity="0.75" id="svg_4" stroke-width="0.5" x="13.75" y="18.25" width="9.625" height="5.125" fill="url(#svg_3)" stroke="#000000" />
				<g id="svg_9">
					<path d="m14.57119,9.12143l-0.98244,5.18852l2.70861,-4.36084" id="svg_6" fill="#a0a0a0" stroke="#000000" />
					<path d="m14.27564,6.76258c-0.25872,0.72562 -0.40735,1.65632 -0.33812,2.15432l2.90784,1.2509c0.30961,-0.21212 1.08198,-1.1814 1.08198,-1.73736" id="svg_7" fill="url(#svg_3)" stroke="#000000" />
					<path d="m16.28893,0.37519l-2.46413,5.9304l4.76481,2.39435l2.13178,-4.96735" id="svg_8" fill="url(#svg_3)" stroke="#000000" />
				</g>
			</g>
		</svg>
	</g>
	<g id="svg_eof" />
</svg>
