<?xml version="1.0" encoding="utf-8"?>
<!-- Generator: Adobe Illustrator 15.0.0, SVG Export Plug-In . SVG Version: 6.00 Build 0) -->
<!DOCTYPE svg PUBLIC "-//W3C//DTD SVG 1.1//EN" "http://www.w3.org/Graphics/SVG/1.1/DTD/svg11.dtd">
<svg version="1.1" id="Layer_1" xmlns="http://www.w3.org/2000/svg" xmlns:xlink="http://www.w3.org/1999/xlink" x="0px" y="0px" width="100px" height="100px" viewbox="0 0 100 100" preserveAspectRatio="none" xml:space="preserve">
	<rect width="100" height="100" fill="#ddd" stroke-width="1" stroke="#aaa" vector-effect="non-scaling-stroke" />
	<path d="M 0 0 L 100 100 Z" stroke-width="1" stroke="#aaa" vector-effect="non-scaling-stroke" />
	<path d="M 100 0 L 0 100 Z" stroke-width="1" stroke="#aaa" vector-effect="non-scaling-stroke" />
</svg>
