<?xml version="1.0" encoding="utf-8"?>
<!-- Generator: Adobe Illustrator 15.0.0, SVG Export Plug-In . SVG Version: 6.00 Build 0) -->
<!DOCTYPE svg PUBLIC "-//W3C//DTD SVG 1.1//EN" "http://www.w3.org/Graphics/SVG/1.1/DTD/svg11.dtd">
<svg version="1.1" id="Layer_1" xmlns="http://www.w3.org/2000/svg" xmlns:xlink="http://www.w3.org/1999/xlink" x="0px" y="0px" width="27px" height="27px" viewBox="0 0 27 27" enable-background="new 0 0 27 27" xml:space="preserve">
	<g>
		<path fill="#2F2F2C" d="M0,0v27h27V0H0z M20.328,24.166l-6.891-3.622l-6.891,3.622l1.316-7.672L2.289,11.06l7.704-1.121
    l3.445-6.979l3.447,6.98l7.702,1.121l-5.573,5.434L20.328,24.166z" />
	</g>
</svg>
